DS202_lab4
…
Add a column to both defense and offense indicating whether it is the first or the second game versus an opponent. We had a single game versus each opponent except for Oklahoma, which we played against twice. (Hint: You can use group_by(), mutate(), and row_number())

offClean <- offClean %>%
  group_by(Name, Opponent_Opponent) %>%
  mutate(Game = row_number())

offClean %>%
  select(Name, Opponent_Opponent, Game)

## # A tibble: 156 x 3
## # Groups:   Name, Opponent_Opponent [143]
##    Name          Opponent_Opponent  Game
##    <fct>         <fct>             <int>
##  1 Akers, Landen Louisiana             1
##  2 Akers, Landen TCU                   1
##  3 Akers, Landen Oklahoma              1
##  4 Akers, Landen Texas Tech            1
##  5 Akers, Landen Oklahoma St.          1
##  6 Akers, Landen Kansas                1
##  7 Akers, Landen Baylor                1
##  8 Akers, Landen Kansas State          1
##  9 Akers, Landen Texas                 1
## 10 Akers, Landen West Virginia         1
## # ... with 146 more rows

defClean <- defClean %>%
  group_by(Name, Opponent_Opponent) %>%
  mutate(Game = row_number())

defClean %>%
  select(Name, Opponent_Opponent, Game)

## # A tibble: 372 x 3
## # Groups:   Name, Opponent_Opponent [344]
##    Name       Opponent_Opponent  Game
##    <fct>      <fct>             <int>
##  1 Rose, Mike Louisiana             1
##  2 Rose, Mike TCU                   1
##  3 Rose, Mike Oklahoma              1
##  4 Rose, Mike Texas Tech            1
##  5 Rose, Mike Oklahoma St.          1
##  6 Rose, Mike Kansas                1
##  7 Rose, Mike Baylor                1
##  8 Rose, Mike Kansas State          1
##  9 Rose, Mike Texas                 1
## 10 Rose, Mike West Virginia         1
## # ... with 362 more rows

Part two: Tidying and exploring

For the following questions, work on the cleaned data frames defClean, offClean, and bioClean.

Reformat the offClean data frame into a tidy format using pivot_longer. The type of statistic (Receiving_REC for the number of receivings, Receiving_YDS for receiving yards, etc) is added as a new key column named stat.

offClean <- offClean %>% 
  pivot_longer(Receiving_REC:Passing_INT, names_to = 'Stat',  values_to = 'Total')
offClean

## # A tibble: 1,560 x 5
## # Groups:   Name, Opponent_Opponent [143]
##    Name          Opponent_Opponent  Game Stat            Total
##    <fct>         <fct>             <int> <chr>           <dbl>
##  1 Akers, Landen Louisiana             1 Receiving_REC       0
##  2 Akers, Landen Louisiana             1 Receiving_YDS       0
##  3 Akers, Landen Louisiana             1 Receiving_TD        0
##  4 Akers, Landen Louisiana             1 Rushing_ATT        NA
##  5 Akers, Landen Louisiana             1 Rushing_YDS        NA
##  6 Akers, Landen Louisiana             1 Rushing_TD         NA
##  7 Akers, Landen Louisiana             1 Passing_CMP-ATT    NA
##  8 Akers, Landen Louisiana             1 Passing_YDS        NA
##  9 Akers, Landen Louisiana             1 Passing_TD         NA
## 10 Akers, Landen Louisiana             1 Passing_INT        NA
## # ... with 1,550 more rows

Obtain the player-level offensive statistics. Namely, for each player and each type of statistics, obtain the sum of the statistics in all games.

offClean <- drop_na(offClean)

offClean %>%
  group_by(Name, Stat) %>%
  summarize(sum(Total))

## `summarise()` has grouped output by 'Name'. You can override using the `.groups` argument.

## # A tibble: 66 x 3
## # Groups:   Name [16]
##    Name          Stat          `sum(Total)`
##    <fct>         <chr>                <dbl>
##  1 Akers, Landen Receiving_REC           18
##  2 Akers, Landen Receiving_TD             1
##  3 Akers, Landen Receiving_YDS          269
##  4 Allen, Chase  Receiving_REC           19
##  5 Allen, Chase  Receiving_TD             2
##  6 Allen, Chase  Receiving_YDS          236
##  7 Bitter, Aidan Receiving_REC            1
##  8 Bitter, Aidan Receiving_TD             0
##  9 Bitter, Aidan Receiving_YDS           38
## 10 Brock, Jirehl Receiving_REC            4
## # ... with 56 more rows
…
How does the performance of quarterback Brock Purdy relate to the performance of the ISU team? Comment on both the defense and offense.

Based on the below defense performance histograms, Brock Purdy has little to no defensive stats. The only stat it looks like he achieved was a couple of solo tackles. I didnt even know Brock Purdy played defense. His stats must be low as a result of not playing on the defense that much.

Based on the below offense performance histograms, Brock Purdy is very good at offense. He has some impressive stats in some categories. For one, he has had a few games where he passed for around 300 yards, which is good. There are also a few games in which he has around three passing TDs each game. Purdy is also pretty good on his feet. He has picked up around 50 yards rushing for a few games. Overall, Purdy does way better on the offense than the defense compared to other players and he is the best at passing than any other player.

defClean <- defClean %>% 
  pivot_longer(Tackles_Solo:Pass_PB, names_to = 'Stat',  values_to = 'Total')
defClean

## # A tibble: 3,348 x 5
## # Groups:   Name, Opponent_Opponent [344]
##    Name       Opponent_Opponent  Game Stat         Total
##    <fct>      <fct>             <int> <chr>        <dbl>
##  1 Rose, Mike Louisiana             1 Tackles_Solo     2
##  2 Rose, Mike Louisiana             1 Tackles_ASST     4
##  3 Rose, Mike Louisiana             1 Tackles_TFL      1
##  4 Rose, Mike Louisiana             1 Tackles_Sack     0
##  5 Rose, Mike Louisiana             1 Turnover_FF      0
##  6 Rose, Mike Louisiana             1 Turnover_FR      0
##  7 Rose, Mike Louisiana             1 Turnover_INT     0
##  8 Rose, Mike Louisiana             1 Pass_QBH         0
##  9 Rose, Mike Louisiana             1 Pass_PB          0
## 10 Rose, Mike TCU                   1 Tackles_Solo     6
## # ... with 3,338 more rows
…
